FEB/uC/nHetCap/het.vcd
$date
     Mar 25, 2015       11:02:44
$end

$version
              SystemC 2.2.0 --- Aug 17 2009 04:21:18
$end

$timescale
     1 ps
$end

$scope module SystemC $end
$var wire    1  aaa  HETCLK       $end
$var wire    1  aab  LOOP_RESOLUTION_CLK       $end
$var wire    1  aac  HIGH_RESOLUTION_CLK       $end
$var wire   32  aad  A [31:0]  $end
$var wire   32  aae  B [31:0]  $end
$var wire   32  aaf  T [31:0]  $end
$var wire    1  aag  Z       $end
$var wire    1  aah  X       $end
$var wire    1  aai  SWT       $end
$var wire    1  aaj  NAF       $end
$var wire    1  aak  AF       $end
$var wire    1  aal  DCF       $end
$var wire    1  aam  GPF       $end
$var wire   32  aan  Loop_Count [31:0]  $end
$upscope $end
$enddefinitions  $end

$comment
All initial values are dumped below at time 0 sec = 0 timescale units.
$end

$dumpvars
1aaa
0aab
0aac
b0 aad
b0 aae
b0 aaf
0aag
0aah
0aai
0aaj
0aak
0aal
0aam
b0 aan
$end

#4545
0aaa

#9090
1aaa

#13635
0aaa

#18180
1aaa

#22725
0aaa

#27270
1aaa

#31815
0aaa

#36360
1aaa

#40905
0aaa

#45450
1aaa

#49995
0aaa

#54540
1aaa

#59085
0aaa

#63630
1aaa

#68175
0aaa

#72720
1aaa

#77265
0aaa

#81810
1aaa
1aab
1aac

#86355
0aaa

#90900
1aaa
0aab
0aac
b1 aan

#95445
0aaa

#99990
1aaa

#104535
0aaa

#109080
1aaa

#113625
0aaa

#118170
1aaa

#122715
0aaa

#127260
1aaa
b1 aad

#131805
0aaa

#136350
1aaa

#140895
0aaa

#145440
1aaa

#149985
0aaa

#154530
1aaa

#159075
0aaa

#163620
1aaa

#168165
0aaa

#172710
1aaa
1aab
1aac

#177255
0aaa

#181800
1aaa
0aab
0aac
b10 aan

#186345
0aaa

#190890
1aaa

#190891
b0 aad

#195435
0aaa

#199980
1aaa

#204525
0aaa

#209070
1aaa

#213615
0aaa

#218160
1aaa
b10 aad

#222705
0aaa

#227250
1aaa

#231795
0aaa

#236340
1aaa

#240885
0aaa

#245430
1aaa

#249975
0aaa

#254520
1aaa

#259065
0aaa

#263610
1aaa
1aab
1aac

#268155
0aaa

#272700
1aaa
0aab
0aac
b11 aan

#277245
0aaa

#281790
1aaa

#281791
b0 aad

#286335
0aaa

#290880
1aaa

#295425
0aaa

#299970
1aaa

#304515
0aaa

#309060
1aaa
b11 aad

#313605
0aaa

#318150
1aaa

#322695
0aaa

#327240
1aaa

#331785
0aaa

#336330
1aaa

#340875
0aaa

#345420
1aaa

#349965
0aaa

#354510
1aaa
1aab
1aac

#359055
0aaa

#363600
1aaa
0aab
0aac
b100 aan

#368145
0aaa

#372690
1aaa

#372691
b0 aad

#377235
0aaa

#381780
1aaa

#386325
0aaa

#390870
1aaa

#395415
0aaa

#399960
1aaa
b100 aad

#404505
0aaa

#409050
1aaa

#413595
0aaa

#418140
1aaa

#422685
0aaa

#427230
1aaa

#431775
0aaa

#436320
1aaa

#440865
0aaa

#445410
1aaa
1aab
1aac

#449955
0aaa

#454500
1aaa
0aab
0aac
b101 aan

#459045
0aaa

#463590
1aaa

#463591
b0 aad

#468135
0aaa

#472680
1aaa

#477225
0aaa

#481770
1aaa

#486315
0aaa

#490860
1aaa
b101 aad

#495405
0aaa

#499950
1aaa

#504495
0aaa

#509040
1aaa

#513585
0aaa

#518130
1aaa

#522675
0aaa

#527220
1aaa

#531765
0aaa

#536310
1aaa
1aab
1aac

#540855
0aaa

#545400
1aaa
0aab
0aac
b110 aan

#549945
0aaa

#554490
1aaa

#554491
b0 aad

#559035
0aaa

#563580
1aaa

#568125
0aaa

#572670
1aaa

#577215
0aaa

#581760
1aaa
b110 aad

#586305
0aaa

#590850
1aaa

#595395
0aaa

#599940
1aaa

#604485
0aaa

#609030
1aaa

#613575
0aaa

#618120
1aaa

#622665
0aaa

#627210
1aaa
1aab
1aac

#631755
0aaa

#636300
1aaa
0aab
0aac
b111 aan

#640845
0aaa

#645390
1aaa

#645391
b0 aad

#649935
0aaa

#654480
1aaa

#659025
0aaa

#663570
1aaa

#668115
0aaa

#672660
1aaa
b111 aad

#677205
0aaa

#681750
1aaa

#686295
0aaa

#690840
1aaa

#695385
0aaa

#699930
1aaa

#704475
0aaa

#709020
1aaa

#713565
0aaa

#718110
1aaa
1aab
1aac

#722655
0aaa

#727200
1aaa
0aab
0aac
b1000 aan

#731745
0aaa

#736290
1aaa

#736291
b0 aad

#740835
0aaa

#745380
1aaa

#749925
0aaa

#754470
1aaa

#759015
0aaa

#763560
1aaa
b1000 aad

#768105
0aaa

#772650
1aaa

#777195
0aaa

#781740
1aaa

#786285
0aaa

#790830
1aaa

#795375
0aaa

#799920
1aaa

#804465
0aaa

#809010
1aaa
1aab
1aac

#813555
0aaa

#818100
1aaa
0aab
0aac
b1001 aan

#822645
0aaa

#827190
1aaa

#827191
b0 aad

#831735
0aaa

#836280
1aaa

#840825
0aaa

#845370
1aaa

#849915
0aaa

#854460
1aaa
b1001 aad

#859005
0aaa

#863550
1aaa

#868095
0aaa

#872640
1aaa

#877185
0aaa

#881730
1aaa

#886275
0aaa

#890820
1aaa

#895365
0aaa

#899910
1aaa
1aab
1aac

#904455
0aaa

#909000
1aaa
0aab
0aac
b1010 aan

#913545
0aaa

#918090
1aaa

#918091
b0 aad

#922635
0aaa

#927180
1aaa

#931725
0aaa

#936270
1aaa

#940815
0aaa

#945360
1aaa
b1010 aad

